%YAML 1.1
%TAG !u! tag:unity3d.com,2011:
--- !u!29 &1
OcclusionCullingSettings:
  m_ObjectHideFlags: 0
  serializedVersion: 2
  m_OcclusionBakeSettings:
    smallestOccluder: 5
    smallestHole: 0.25
    backfaceThreshold: 100
  m_SceneGUID: 00000000000000000000000000000000
  m_OcclusionCullingData: {fileID: 0}
--- !u!104 &2
RenderSettings:
  m_ObjectHideFlags: 0
  serializedVersion: 9
  m_Fog: 0
  m_FogColor: {r: 0.5, g: 0.5, b: 0.5, a: 1}
  m_FogMode: 3
  m_FogDensity: 0.01
  m_LinearFogStart: 0
  m_LinearFogEnd: 300
  m_AmbientSkyColor: {r: 0.212, g: 0.227, b: 0.259, a: 1}
  m_AmbientEquatorColor: {r: 0.114, g: 0.125, b: 0.133, a: 1}
  m_AmbientGroundColor: {r: 0.047, g: 0.043, b: 0.035, a: 1}
  m_AmbientIntensity: 1
  m_AmbientMode: 3
  m_SubtractiveShadowColor: {r: 0.42, g: 0.478, b: 0.627, a: 1}
  m_SkyboxMaterial: {fileID: 0}
  m_HaloStrength: 0.5
  m_FlareStrength: 1
  m_FlareFadeSpeed: 3
  m_HaloTexture: {fileID: 0}
  m_SpotCookie: {fileID: 10001, guid: 0000000000000000e000000000000000, type: 0}
  m_DefaultReflectionMode: 0
  m_DefaultReflectionResolution: 128
  m_ReflectionBounces: 1
  m_ReflectionIntensity: 1
  m_CustomReflection: {fileID: 0}
  m_Sun: {fileID: 0}
  m_IndirectSpecularColor: {r: 0, g: 0, b: 0, a: 1}
  m_UseRadianceAmbientProbe: 0
--- !u!157 &3
LightmapSettings:
  m_ObjectHideFlags: 0
  serializedVersion: 12
  m_GIWorkflowMode: 1
  m_GISettings:
    serializedVersion: 2
    m_BounceScale: 1
    m_IndirectOutputScale: 1
    m_AlbedoBoost: 1
    m_EnvironmentLightingMode: 0
    m_EnableBakedLightmaps: 0
    m_EnableRealtimeLightmaps: 0
  m_LightmapEditorSettings:
    serializedVersion: 12
    m_Resolution: 2
    m_BakeResolution: 40
    m_AtlasSize: 1024
    m_AO: 0
    m_AOMaxDistance: 1
    m_CompAOExponent: 1
    m_CompAOExponentDirect: 0
    m_ExtractAmbientOcclusion: 0
    m_Padding: 2
    m_LightmapParameters: {fileID: 0}
    m_LightmapsBakeMode: 1
    m_TextureCompression: 1
    m_FinalGather: 0
    m_FinalGatherFiltering: 1
    m_FinalGatherRayCount: 256
    m_ReflectionCompression: 2
    m_MixedBakeMode: 2
    m_BakeBackend: 1
    m_PVRSampling: 1
    m_PVRDirectSampleCount: 32
    m_PVRSampleCount: 512
    m_PVRBounces: 2
    m_PVREnvironmentSampleCount: 256
    m_PVREnvironmentReferencePointCount: 2048
    m_PVRFilteringMode: 1
    m_PVRDenoiserTypeDirect: 1
    m_PVRDenoiserTypeIndirect: 1
    m_PVRDenoiserTypeAO: 1
    m_PVRFilterTypeDirect: 0
    m_PVRFilterTypeIndirect: 0
    m_PVRFilterTypeAO: 0
    m_PVREnvironmentMIS: 1
    m_PVRCulling: 1
    m_PVRFilteringGaussRadiusDirect: 1
    m_PVRFilteringGaussRadiusIndirect: 5
    m_PVRFilteringGaussRadiusAO: 2
    m_PVRFilteringAtrousPositionSigmaDirect: 0.5
    m_PVRFilteringAtrousPositionSigmaIndirect: 2
    m_PVRFilteringAtrousPositionSigmaAO: 1
    m_ExportTrainingData: 0
    m_TrainingDataDestination: TrainingData
    m_LightProbeSampleCountMultiplier: 4
  m_LightingDataAsset: {fileID: 0}
  m_LightingSettings: {fileID: 0}
--- !u!196 &4
NavMeshSettings:
  serializedVersion: 2
  m_ObjectHideFlags: 0
  m_BuildSettings:
    serializedVersion: 2
    agentTypeID: 0
    agentRadius: 0.5
    agentHeight: 2
    agentSlope: 45
    agentClimb: 0.4
    ledgeDropHeight: 0
    maxJumpAcrossDistance: 0
    minRegionArea: 2
    manualCellSize: 0
    cellSize: 0.16666667
    manualTileSize: 0
    tileSize: 256
    accuratePlacement: 0
    maxJobWorkers: 0
    preserveTilesOutsideBounds: 0
    debug:
      m_Flags: 0
  m_NavMeshData: {fileID: 0}
--- !u!1001 &126998288
PrefabInstance:
  m_ObjectHideFlags: 0
  serializedVersion: 2
  m_Modification:
    m_TransformParent: {fileID: 837527199}
    m_Modifications:
    - target: {fileID: 3579247877882701033, guid: 611f373a719c6f94ab26694ab17a1941, type: 3}
      propertyPath: m_RootOrder
      value: 4
      objectReference: {fileID: 0}
    - target: {fileID: 3579247877882701033, guid: 611f373a719c6f94ab26694ab17a1941, type: 3}
      propertyPath: m_LocalPosition.x
      value: -0.5
      objectReference: {fileID: 0}
    - target: {fileID: 3579247877882701033, guid: 611f373a719c6f94ab26694ab17a1941, type: 3}
      propertyPath: m_LocalPosition.y
      value: -0.5
      objectReference: {fileID: 0}
    - target: {fileID: 3579247877882701033, guid: 611f373a719c6f94ab26694ab17a1941, type: 3}
      propertyPath: m_LocalPosition.z
      value: 0
      objectReference: {fileID: 0}
    - target: {fileID: 3579247877882701033, guid: 611f373a719c6f94ab26694ab17a1941, type: 3}
      propertyPath: m_LocalRotation.w
      value: 1
      objectReference: {fileID: 0}
    - target: {fileID: 3579247877882701033, guid: 611f373a719c6f94ab26694ab17a1941, type: 3}
      propertyPath: m_LocalRotation.x
      value: 0
      objectReference: {fileID: 0}
    - target: {fileID: 3579247877882701033, guid: 611f373a719c6f94ab26694ab17a1941, type: 3}
      propertyPath: m_LocalRotation.y
      value: 0
      objectReference: {fileID: 0}
    - target: {fileID: 3579247877882701033, guid: 611f373a719c6f94ab26694ab17a1941, type: 3}
      propertyPath: m_LocalRotation.z
      value: 0
      objectReference: {fileID: 0}
    - target: {fileID: 3579247877882701033, guid: 611f373a719c6f94ab26694ab17a1941, type: 3}
      propertyPath: m_LocalEulerAnglesHint.x
      value: 0
      objectReference: {fileID: 0}
    - target: {fileID: 3579247877882701033, guid: 611f373a719c6f94ab26694ab17a1941, type: 3}
      propertyPath: m_LocalEulerAnglesHint.y
      value: 0
      objectReference: {fileID: 0}
    - target: {fileID: 3579247877882701033, guid: 611f373a719c6f94ab26694ab17a1941, type: 3}
      propertyPath: m_LocalEulerAnglesHint.z
      value: 0
      objectReference: {fileID: 0}
    - target: {fileID: 3579247877882701037, guid: 611f373a719c6f94ab26694ab17a1941, type: 3}
      propertyPath: m_Name
      value: RandomSpikes
      objectReference: {fileID: 0}
    m_RemovedComponents: []
  m_SourcePrefab: {fileID: 100100000, guid: 611f373a719c6f94ab26694ab17a1941, type: 3}
--- !u!4 &126998289 stripped
Transform:
  m_CorrespondingSourceObject: {fileID: 3579247877882701033, guid: 611f373a719c6f94ab26694ab17a1941, type: 3}
  m_PrefabInstance: {fileID: 126998288}
  m_PrefabAsset: {fileID: 0}
--- !u!1001 &682692038
PrefabInstance:
  m_ObjectHideFlags: 0
  serializedVersion: 2
  m_Modification:
    m_TransformParent: {fileID: 837527199}
    m_Modifications:
    - target: {fileID: 7512088796804297281, guid: 551007f7ef739ef429a2a1cb6632a744, type: 3}
      propertyPath: m_RootOrder
      value: 2
      objectReference: {fileID: 0}
    - target: {fileID: 7512088796804297281, guid: 551007f7ef739ef429a2a1cb6632a744, type: 3}
      propertyPath: m_LocalPosition.x
      value: 3.5
      objectReference: {fileID: 0}
    - target: {fileID: 7512088796804297281, guid: 551007f7ef739ef429a2a1cb6632a744, type: 3}
      propertyPath: m_LocalPosition.y
      value: -0.5
      objectReference: {fileID: 0}
    - target: {fileID: 7512088796804297281, guid: 551007f7ef739ef429a2a1cb6632a744, type: 3}
      propertyPath: m_LocalPosition.z
      value: 0
      objectReference: {fileID: 0}
    - target: {fileID: 7512088796804297281, guid: 551007f7ef739ef429a2a1cb6632a744, type: 3}
      propertyPath: m_LocalRotation.w
      value: 1
      objectReference: {fileID: 0}
    - target: {fileID: 7512088796804297281, guid: 551007f7ef739ef429a2a1cb6632a744, type: 3}
      propertyPath: m_LocalRotation.x
      value: 0
      objectReference: {fileID: 0}
    - target: {fileID: 7512088796804297281, guid: 551007f7ef739ef429a2a1cb6632a744, type: 3}
      propertyPath: m_LocalRotation.y
      value: 0
      objectReference: {fileID: 0}
    - target: {fileID: 7512088796804297281, guid: 551007f7ef739ef429a2a1cb6632a744, type: 3}
      propertyPath: m_LocalRotation.z
      value: 0
      objectReference: {fileID: 0}
    - target: {fileID: 7512088796804297281, guid: 551007f7ef739ef429a2a1cb6632a744, type: 3}
      propertyPath: m_LocalEulerAnglesHint.x
      value: 0
      objectReference: {fileID: 0}
    - target: {fileID: 7512088796804297281, guid: 551007f7ef739ef429a2a1cb6632a744, type: 3}
      propertyPath: m_LocalEulerAnglesHint.y
      value: 0
      objectReference: {fileID: 0}
    - target: {fileID: 7512088796804297281, guid: 551007f7ef739ef429a2a1cb6632a744, type: 3}
      propertyPath: m_LocalEulerAnglesHint.z
      value: 0
      objectReference: {fileID: 0}
    - target: {fileID: 7512088796804297285, guid: 551007f7ef739ef429a2a1cb6632a744, type: 3}
      propertyPath: m_Name
      value: RandomExit
      objectReference: {fileID: 0}
    m_RemovedComponents: []
  m_SourcePrefab: {fileID: 100100000, guid: 551007f7ef739ef429a2a1cb6632a744, type: 3}
--- !u!4 &682692039 stripped
Transform:
  m_CorrespondingSourceObject: {fileID: 7512088796804297281, guid: 551007f7ef739ef429a2a1cb6632a744, type: 3}
  m_PrefabInstance: {fileID: 682692038}
  m_PrefabAsset: {fileID: 0}
--- !u!1001 &829431278
PrefabInstance:
  m_ObjectHideFlags: 0
  serializedVersion: 2
  m_Modification:
    m_TransformParent: {fileID: 837527199}
    m_Modifications:
    - target: {fileID: 3579247877882701033, guid: 611f373a719c6f94ab26694ab17a1941, type: 3}
      propertyPath: m_RootOrder
      value: 6
      objectReference: {fileID: 0}
    - target: {fileID: 3579247877882701033, guid: 611f373a719c6f94ab26694ab17a1941, type: 3}
      propertyPath: m_LocalPosition.x
      value: -0.5
      objectReference: {fileID: 0}
    - target: {fileID: 3579247877882701033, guid: 611f373a719c6f94ab26694ab17a1941, type: 3}
      propertyPath: m_LocalPosition.y
      value: -2.5
      objectReference: {fileID: 0}
    - target: {fileID: 3579247877882701033, guid: 611f373a719c6f94ab26694ab17a1941, type: 3}
      propertyPath: m_LocalPosition.z
      value: 0
      objectReference: {fileID: 0}
    - target: {fileID: 3579247877882701033, guid: 611f373a719c6f94ab26694ab17a1941, type: 3}
      propertyPath: m_LocalRotation.w
      value: 1
      objectReference: {fileID: 0}
    - target: {fileID: 3579247877882701033, guid: 611f373a719c6f94ab26694ab17a1941, type: 3}
      propertyPath: m_LocalRotation.x
      value: 0
      objectReference: {fileID: 0}
    - target: {fileID: 3579247877882701033, guid: 611f373a719c6f94ab26694ab17a1941, type: 3}
      propertyPath: m_LocalRotation.y
      value: 0
      objectReference: {fileID: 0}
    - target: {fileID: 3579247877882701033, guid: 611f373a719c6f94ab26694ab17a1941, type: 3}
      propertyPath: m_LocalRotation.z
      value: 0
      objectReference: {fileID: 0}
    - target: {fileID: 3579247877882701033, guid: 611f373a719c6f94ab26694ab17a1941, type: 3}
      propertyPath: m_LocalEulerAnglesHint.x
      value: 0
      objectReference: {fileID: 0}
    - target: {fileID: 3579247877882701033, guid: 611f373a719c6f94ab26694ab17a1941, type: 3}
      propertyPath: m_LocalEulerAnglesHint.y
      value: 0
      objectReference: {fileID: 0}
    - target: {fileID: 3579247877882701033, guid: 611f373a719c6f94ab26694ab17a1941, type: 3}
      propertyPath: m_LocalEulerAnglesHint.z
      value: 0
      objectReference: {fileID: 0}
    - target: {fileID: 3579247877882701037, guid: 611f373a719c6f94ab26694ab17a1941, type: 3}
      propertyPath: m_Name
      value: RandomSpikes
      objectReference: {fileID: 0}
    m_RemovedComponents: []
  m_SourcePrefab: {fileID: 100100000, guid: 611f373a719c6f94ab26694ab17a1941, type: 3}
--- !u!4 &829431279 stripped
Transform:
  m_CorrespondingSourceObject: {fileID: 3579247877882701033, guid: 611f373a719c6f94ab26694ab17a1941, type: 3}
  m_PrefabInstance: {fileID: 829431278}
  m_PrefabAsset: {fileID: 0}
--- !u!1 &837527198
GameObject:
  m_ObjectHideFlags: 0
  m_CorrespondingSourceObject: {fileID: 0}
  m_PrefabInstance: {fileID: 0}
  m_PrefabAsset: {fileID: 0}
  serializedVersion: 6
  m_Component:
  - component: {fileID: 837527199}
  - component: {fileID: 837527201}
  - component: {fileID: 837527200}
  m_Layer: 0
  m_Name: Tilemap
  m_TagString: Untagged
  m_Icon: {fileID: 0}
  m_NavMeshLayer: 0
  m_StaticEditorFlags: 0
  m_IsActive: 1
--- !u!4 &837527199
Transform:
  m_ObjectHideFlags: 0
  m_CorrespondingSourceObject: {fileID: 0}
  m_PrefabInstance: {fileID: 0}
  m_PrefabAsset: {fileID: 0}
  m_GameObject: {fileID: 837527198}
  m_LocalRotation: {x: -0, y: -0, z: -0, w: 1}
  m_LocalPosition: {x: 0, y: 0, z: 0}
  m_LocalScale: {x: 1, y: 1, z: 1}
  m_Children:
  - {fileID: 1901175149}
  - {fileID: 2074645788}
  - {fileID: 682692039}
  - {fileID: 1853574204}
  - {fileID: 126998289}
  - {fileID: 1518919081}
  - {fileID: 829431279}
  - {fileID: 1316195035}
  - {fileID: 1278018243}
  - {fileID: 1728303363}
  m_Father: {fileID: 1706948814}
  m_RootOrder: 0
  m_LocalEulerAnglesHint: {x: 0, y: 0, z: 0}
--- !u!483693784 &837527200
TilemapRenderer:
  m_ObjectHideFlags: 0
  m_CorrespondingSourceObject: {fileID: 0}
  m_PrefabInstance: {fileID: 0}
  m_PrefabAsset: {fileID: 0}
  m_GameObject: {fileID: 837527198}
  m_Enabled: 1
  m_CastShadows: 0
  m_ReceiveShadows: 0
  m_DynamicOccludee: 1
  m_StaticShadowCaster: 0
  m_MotionVectors: 1
  m_LightProbeUsage: 0
  m_ReflectionProbeUsage: 0
  m_RayTracingMode: 0
  m_RayTraceProcedural: 0
  m_RenderingLayerMask: 1
  m_RendererPriority: 0
  m_Materials:
  - {fileID: 2100000, guid: a97c105638bdf8b4a8650670310a4cd3, type: 2}
  m_StaticBatchInfo:
    firstSubMesh: 0
    subMeshCount: 0
  m_StaticBatchRoot: {fileID: 0}
  m_ProbeAnchor: {fileID: 0}
  m_LightProbeVolumeOverride: {fileID: 0}
  m_ScaleInLightmap: 1
  m_ReceiveGI: 1
  m_PreserveUVs: 0
  m_IgnoreNormalsForChartDetection: 0
  m_ImportantGI: 0
  m_StitchLightmapSeams: 1
  m_SelectedEditorRenderState: 0
  m_MinimumChartSize: 4
  m_AutoUVMaxDistance: 0.5
  m_AutoUVMaxAngle: 89
  m_LightmapParameters: {fileID: 0}
  m_SortingLayerID: 0
  m_SortingLayer: 0
  m_SortingOrder: 0
  m_ChunkSize: {x: 32, y: 32, z: 32}
  m_ChunkCullingBounds: {x: 0, y: 0, z: 0}
  m_MaxChunkCount: 16
  m_MaxFrameAge: 16
  m_SortOrder: 0
  m_Mode: 0
  m_DetectChunkCullingBounds: 0
  m_MaskInteraction: 0
--- !u!1839735485 &837527201
Tilemap:
  m_ObjectHideFlags: 0
  m_CorrespondingSourceObject: {fileID: 0}
  m_PrefabInstance: {fileID: 0}
  m_PrefabAsset: {fileID: 0}
  m_GameObject: {fileID: 837527198}
  m_Enabled: 1
  m_Tiles: {}
  m_AnimatedTiles: {}
  m_TileAssetArray:
  - m_RefCount: 0
    m_Data: {fileID: 0}
  - m_RefCount: 0
    m_Data: {fileID: 0}
  - m_RefCount: 0
    m_Data: {fileID: 0}
  - m_RefCount: 0
    m_Data: {fileID: 0}
  - m_RefCount: 0
    m_Data: {fileID: 0}
  - m_RefCount: 0
    m_Data: {fileID: 0}
  - m_RefCount: 0
    m_Data: {fileID: 0}
  - m_RefCount: 0
    m_Data: {fileID: 0}
  - m_RefCount: 0
    m_Data: {fileID: 0}
  - m_RefCount: 0
    m_Data: {fileID: 0}
  - m_RefCount: 0
    m_Data: {fileID: 0}
  m_TileSpriteArray:
  - m_RefCount: 0
    m_Data: {fileID: 0}
  - m_RefCount: 0
    m_Data: {fileID: 0}
  - m_RefCount: 0
    m_Data: {fileID: 0}
  - m_RefCount: 0
    m_Data: {fileID: 0}
  - m_RefCount: 0
    m_Data: {fileID: 0}
  - m_RefCount: 0
    m_Data: {fileID: 0}
  - m_RefCount: 0
    m_Data: {fileID: 0}
  - m_RefCount: 0
    m_Data: {fileID: 0}
  - m_RefCount: 0
    m_Data: {fileID: 0}
  - m_RefCount: 0
    m_Data: {fileID: 0}
  - m_RefCount: 0
    m_Data: {fileID: 0}
  m_TileMatrixArray:
  - m_RefCount: 0
    m_Data:
      e00: -1.084227e-19
      e01: 0
      e02: -2.5758154e-22
      e03: -2.5758154e-22
      e10: 7.82e-43
      e11: 0
      e12: 3.2e-43
      e13: 3.2e-43
      e20: -1.9252791e-26
      e21: 3.699538e+19
      e22: 6.083561
      e23: 3.699538e+19
      e30: 4.5905e-41
      e31: 7.85e-43
      e32: 7.82e-43
      e33: 7.85e-43
  m_TileColorArray:
  - m_RefCount: 0
    m_Data: {r: 3.699538e+19, g: 3.699538e+19, b: 3.699538e+19, a: 3.699538e+19}
  m_TileObjectToInstantiateArray: []
  m_AnimationFrameRate: 1
  m_Color: {r: 1, g: 1, b: 1, a: 1}
  m_Origin: {x: -11, y: -6, z: 0}
  m_Size: {x: 19, y: 11, z: 1}
  m_TileAnchor: {x: 0.5, y: 0.5, z: 0}
  m_TileOrientation: 0
  m_TileOrientationMatrix:
    e00: 1
    e01: 0
    e02: 0
    e03: 0
    e10: 0
    e11: 1
    e12: 0
    e13: 0
    e20: 0
    e21: 0
    e22: 1
    e23: 0
    e30: 0
    e31: 0
    e32: 0
    e33: 1
--- !u!1001 &1278018242
PrefabInstance:
  m_ObjectHideFlags: 0
  serializedVersion: 2
  m_Modification:
    m_TransformParent: {fileID: 837527199}
    m_Modifications:
    - target: {fileID: 4544063361883036033, guid: e233ab8c7fe80f2418f78fb93aa5efbd, type: 3}
      propertyPath: m_Name
      value: FallingStuff
      objectReference: {fileID: 0}
    - target: {fileID: 4544063361883036037, guid: e233ab8c7fe80f2418f78fb93aa5efbd, type: 3}
      propertyPath: m_RootOrder
      value: 8
      objectReference: {fileID: 0}
    - target: {fileID: 4544063361883036037, guid: e233ab8c7fe80f2418f78fb93aa5efbd, type: 3}
      propertyPath: m_LocalPosition.x
      value: -1.5
      objectReference: {fileID: 0}
    - target: {fileID: 4544063361883036037, guid: e233ab8c7fe80f2418f78fb93aa5efbd, type: 3}
      propertyPath: m_LocalPosition.y
      value: 0.5
      objectReference: {fileID: 0}
    - target: {fileID: 4544063361883036037, guid: e233ab8c7fe80f2418f78fb93aa5efbd, type: 3}
      propertyPath: m_LocalPosition.z
      value: 0
      objectReference: {fileID: 0}
    - target: {fileID: 4544063361883036037, guid: e233ab8c7fe80f2418f78fb93aa5efbd, type: 3}
      propertyPath: m_LocalRotation.w
      value: 1
      objectReference: {fileID: 0}
    - target: {fileID: 4544063361883036037, guid: e233ab8c7fe80f2418f78fb93aa5efbd, type: 3}
      propertyPath: m_LocalRotation.x
      value: 0
      objectReference: {fileID: 0}
    - target: {fileID: 4544063361883036037, guid: e233ab8c7fe80f2418f78fb93aa5efbd, type: 3}
      propertyPath: m_LocalRotation.y
      value: 0
      objectReference: {fileID: 0}
    - target: {fileID: 4544063361883036037, guid: e233ab8c7fe80f2418f78fb93aa5efbd, type: 3}
      propertyPath: m_LocalRotation.z
      value: 0
      objectReference: {fileID: 0}
    - target: {fileID: 4544063361883036037, guid: e233ab8c7fe80f2418f78fb93aa5efbd, type: 3}
      propertyPath: m_LocalEulerAnglesHint.x
      value: 0
      objectReference: {fileID: 0}
    - target: {fileID: 4544063361883036037, guid: e233ab8c7fe80f2418f78fb93aa5efbd, type: 3}
      propertyPath: m_LocalEulerAnglesHint.y
      value: 0
      objectReference: {fileID: 0}
    - target: {fileID: 4544063361883036037, guid: e233ab8c7fe80f2418f78fb93aa5efbd, type: 3}
      propertyPath: m_LocalEulerAnglesHint.z
      value: 0
      objectReference: {fileID: 0}
    m_RemovedComponents: []
  m_SourcePrefab: {fileID: 100100000, guid: e233ab8c7fe80f2418f78fb93aa5efbd, type: 3}
--- !u!4 &1278018243 stripped
Transform:
  m_CorrespondingSourceObject: {fileID: 4544063361883036037, guid: e233ab8c7fe80f2418f78fb93aa5efbd, type: 3}
  m_PrefabInstance: {fileID: 1278018242}
  m_PrefabAsset: {fileID: 0}
--- !u!1001 &1316195034
PrefabInstance:
  m_ObjectHideFlags: 0
  serializedVersion: 2
  m_Modification:
    m_TransformParent: {fileID: 837527199}
    m_Modifications:
    - target: {fileID: 4544063361883036033, guid: e233ab8c7fe80f2418f78fb93aa5efbd, type: 3}
      propertyPath: m_Name
      value: FallingStuff
      objectReference: {fileID: 0}
    - target: {fileID: 4544063361883036037, guid: e233ab8c7fe80f2418f78fb93aa5efbd, type: 3}
      propertyPath: m_RootOrder
      value: 7
      objectReference: {fileID: 0}
    - target: {fileID: 4544063361883036037, guid: e233ab8c7fe80f2418f78fb93aa5efbd, type: 3}
      propertyPath: m_LocalPosition.x
      value: -3.5
      objectReference: {fileID: 0}
    - target: {fileID: 4544063361883036037, guid: e233ab8c7fe80f2418f78fb93aa5efbd, type: 3}
      propertyPath: m_LocalPosition.y
      value: 0.5
      objectReference: {fileID: 0}
    - target: {fileID: 4544063361883036037, guid: e233ab8c7fe80f2418f78fb93aa5efbd, type: 3}
      propertyPath: m_LocalPosition.z
      value: 0
      objectReference: {fileID: 0}
    - target: {fileID: 4544063361883036037, guid: e233ab8c7fe80f2418f78fb93aa5efbd, type: 3}
      propertyPath: m_LocalRotation.w
      value: 1
      objectReference: {fileID: 0}
    - target: {fileID: 4544063361883036037, guid: e233ab8c7fe80f2418f78fb93aa5efbd, type: 3}
      propertyPath: m_LocalRotation.x
      value: 0
      objectReference: {fileID: 0}
    - target: {fileID: 4544063361883036037, guid: e233ab8c7fe80f2418f78fb93aa5efbd, type: 3}
      propertyPath: m_LocalRotation.y
      value: 0
      objectReference: {fileID: 0}
    - target: {fileID: 4544063361883036037, guid: e233ab8c7fe80f2418f78fb93aa5efbd, type: 3}
      propertyPath: m_LocalRotation.z
      value: 0
      objectReference: {fileID: 0}
    - target: {fileID: 4544063361883036037, guid: e233ab8c7fe80f2418f78fb93aa5efbd, type: 3}
      propertyPath: m_LocalEulerAnglesHint.x
      value: 0
      objectReference: {fileID: 0}
    - target: {fileID: 4544063361883036037, guid: e233ab8c7fe80f2418f78fb93aa5efbd, type: 3}
      propertyPath: m_LocalEulerAnglesHint.y
      value: 0
      objectReference: {fileID: 0}
    - target: {fileID: 4544063361883036037, guid: e233ab8c7fe80f2418f78fb93aa5efbd, type: 3}
      propertyPath: m_LocalEulerAnglesHint.z
      value: 0
      objectReference: {fileID: 0}
    m_RemovedComponents: []
  m_SourcePrefab: {fileID: 100100000, guid: e233ab8c7fe80f2418f78fb93aa5efbd, type: 3}
--- !u!4 &1316195035 stripped
Transform:
  m_CorrespondingSourceObject: {fileID: 4544063361883036037, guid: e233ab8c7fe80f2418f78fb93aa5efbd, type: 3}
  m_PrefabInstance: {fileID: 1316195034}
  m_PrefabAsset: {fileID: 0}
--- !u!1001 &1518919080
PrefabInstance:
  m_ObjectHideFlags: 0
  serializedVersion: 2
  m_Modification:
    m_TransformParent: {fileID: 837527199}
    m_Modifications:
    - target: {fileID: 3579247877882701033, guid: 611f373a719c6f94ab26694ab17a1941, type: 3}
      propertyPath: m_RootOrder
      value: 5
      objectReference: {fileID: 0}
    - target: {fileID: 3579247877882701033, guid: 611f373a719c6f94ab26694ab17a1941, type: 3}
      propertyPath: m_LocalPosition.x
      value: -0.5
      objectReference: {fileID: 0}
    - target: {fileID: 3579247877882701033, guid: 611f373a719c6f94ab26694ab17a1941, type: 3}
      propertyPath: m_LocalPosition.y
      value: -1.5
      objectReference: {fileID: 0}
    - target: {fileID: 3579247877882701033, guid: 611f373a719c6f94ab26694ab17a1941, type: 3}
      propertyPath: m_LocalPosition.z
      value: 0
      objectReference: {fileID: 0}
    - target: {fileID: 3579247877882701033, guid: 611f373a719c6f94ab26694ab17a1941, type: 3}
      propertyPath: m_LocalRotation.w
      value: 1
      objectReference: {fileID: 0}
    - target: {fileID: 3579247877882701033, guid: 611f373a719c6f94ab26694ab17a1941, type: 3}
      propertyPath: m_LocalRotation.x
      value: 0
      objectReference: {fileID: 0}
    - target: {fileID: 3579247877882701033, guid: 611f373a719c6f94ab26694ab17a1941, type: 3}
      propertyPath: m_LocalRotation.y
      value: 0
      objectReference: {fileID: 0}
    - target: {fileID: 3579247877882701033, guid: 611f373a719c6f94ab26694ab17a1941, type: 3}
      propertyPath: m_LocalRotation.z
      value: 0
      objectReference: {fileID: 0}
    - target: {fileID: 3579247877882701033, guid: 611f373a719c6f94ab26694ab17a1941, type: 3}
      propertyPath: m_LocalEulerAnglesHint.x
      value: 0
      objectReference: {fileID: 0}
    - target: {fileID: 3579247877882701033, guid: 611f373a719c6f94ab26694ab17a1941, type: 3}
      propertyPath: m_LocalEulerAnglesHint.y
      value: 0
      objectReference: {fileID: 0}
    - target: {fileID: 3579247877882701033, guid: 611f373a719c6f94ab26694ab17a1941, type: 3}
      propertyPath: m_LocalEulerAnglesHint.z
      value: 0
      objectReference: {fileID: 0}
    - target: {fileID: 3579247877882701037, guid: 611f373a719c6f94ab26694ab17a1941, type: 3}
      propertyPath: m_Name
      value: RandomSpikes
      objectReference: {fileID: 0}
    m_RemovedComponents: []
  m_SourcePrefab: {fileID: 100100000, guid: 611f373a719c6f94ab26694ab17a1941, type: 3}
--- !u!4 &1518919081 stripped
Transform:
  m_CorrespondingSourceObject: {fileID: 3579247877882701033, guid: 611f373a719c6f94ab26694ab17a1941, type: 3}
  m_PrefabInstance: {fileID: 1518919080}
  m_PrefabAsset: {fileID: 0}
--- !u!1 &1706948812
GameObject:
  m_ObjectHideFlags: 0
  m_CorrespondingSourceObject: {fileID: 0}
  m_PrefabInstance: {fileID: 0}
  m_PrefabAsset: {fileID: 0}
  serializedVersion: 6
  m_Component:
  - component: {fileID: 1706948814}
  - component: {fileID: 1706948813}
  m_Layer: 0
  m_Name: Grid
  m_TagString: Untagged
  m_Icon: {fileID: 0}
  m_NavMeshLayer: 0
  m_StaticEditorFlags: 0
  m_IsActive: 1
--- !u!156049354 &1706948813
Grid:
  m_ObjectHideFlags: 0
  m_CorrespondingSourceObject: {fileID: 0}
  m_PrefabInstance: {fileID: 0}
  m_PrefabAsset: {fileID: 0}
  m_GameObject: {fileID: 1706948812}
  m_Enabled: 1
  m_CellSize: {x: 1, y: 1, z: 0}
  m_CellGap: {x: 0, y: 0, z: 0}
  m_CellLayout: 0
  m_CellSwizzle: 0
--- !u!4 &1706948814
Transform:
  m_ObjectHideFlags: 0
  m_CorrespondingSourceObject: {fileID: 0}
  m_PrefabInstance: {fileID: 0}
  m_PrefabAsset: {fileID: 0}
  m_GameObject: {fileID: 1706948812}
  m_LocalRotation: {x: 0, y: 0, z: 0, w: 1}
  m_LocalPosition: {x: 0, y: 0, z: 0}
  m_LocalScale: {x: 1, y: 1, z: 1}
  m_Children:
  - {fileID: 837527199}
  m_Father: {fileID: 0}
  m_RootOrder: 0
  m_LocalEulerAnglesHint: {x: 0, y: 0, z: 0}
--- !u!1001 &1728303362
PrefabInstance:
  m_ObjectHideFlags: 0
  serializedVersion: 2
  m_Modification:
    m_TransformParent: {fileID: 837527199}
    m_Modifications:
    - target: {fileID: 4544063361883036033, guid: e233ab8c7fe80f2418f78fb93aa5efbd, type: 3}
      propertyPath: m_Name
      value: FallingStuff
      objectReference: {fileID: 0}
    - target: {fileID: 4544063361883036037, guid: e233ab8c7fe80f2418f78fb93aa5efbd, type: 3}
      propertyPath: m_RootOrder
      value: 9
      objectReference: {fileID: 0}
    - target: {fileID: 4544063361883036037, guid: e233ab8c7fe80f2418f78fb93aa5efbd, type: 3}
      propertyPath: m_LocalPosition.x
      value: -2.5
      objectReference: {fileID: 0}
    - target: {fileID: 4544063361883036037, guid: e233ab8c7fe80f2418f78fb93aa5efbd, type: 3}
      propertyPath: m_LocalPosition.y
      value: 0.5
      objectReference: {fileID: 0}
    - target: {fileID: 4544063361883036037, guid: e233ab8c7fe80f2418f78fb93aa5efbd, type: 3}
      propertyPath: m_LocalPosition.z
      value: 0
      objectReference: {fileID: 0}
    - target: {fileID: 4544063361883036037, guid: e233ab8c7fe80f2418f78fb93aa5efbd, type: 3}
      propertyPath: m_LocalRotation.w
      value: 1
      objectReference: {fileID: 0}
    - target: {fileID: 4544063361883036037, guid: e233ab8c7fe80f2418f78fb93aa5efbd, type: 3}
      propertyPath: m_LocalRotation.x
      value: 0
      objectReference: {fileID: 0}
    - target: {fileID: 4544063361883036037, guid: e233ab8c7fe80f2418f78fb93aa5efbd, type: 3}
      propertyPath: m_LocalRotation.y
      value: 0
      objectReference: {fileID: 0}
    - target: {fileID: 4544063361883036037, guid: e233ab8c7fe80f2418f78fb93aa5efbd, type: 3}
      propertyPath: m_LocalRotation.z
      value: 0
      objectReference: {fileID: 0}
    - target: {fileID: 4544063361883036037, guid: e233ab8c7fe80f2418f78fb93aa5efbd, type: 3}
      propertyPath: m_LocalEulerAnglesHint.x
      value: 0
      objectReference: {fileID: 0}
    - target: {fileID: 4544063361883036037, guid: e233ab8c7fe80f2418f78fb93aa5efbd, type: 3}
      propertyPath: m_LocalEulerAnglesHint.y
      value: 0
      objectReference: {fileID: 0}
    - target: {fileID: 4544063361883036037, guid: e233ab8c7fe80f2418f78fb93aa5efbd, type: 3}
      propertyPath: m_LocalEulerAnglesHint.z
      value: 0
      objectReference: {fileID: 0}
    m_RemovedComponents: []
  m_SourcePrefab: {fileID: 100100000, guid: e233ab8c7fe80f2418f78fb93aa5efbd, type: 3}
--- !u!4 &1728303363 stripped
Transform:
  m_CorrespondingSourceObject: {fileID: 4544063361883036037, guid: e233ab8c7fe80f2418f78fb93aa5efbd, type: 3}
  m_PrefabInstance: {fileID: 1728303362}
  m_PrefabAsset: {fileID: 0}
--- !u!1001 &1853574203
PrefabInstance:
  m_ObjectHideFlags: 0
  serializedVersion: 2
  m_Modification:
    m_TransformParent: {fileID: 837527199}
    m_Modifications:
    - target: {fileID: 3579247877882701033, guid: 611f373a719c6f94ab26694ab17a1941, type: 3}
      propertyPath: m_RootOrder
      value: 3
      objectReference: {fileID: 0}
    - target: {fileID: 3579247877882701033, guid: 611f373a719c6f94ab26694ab17a1941, type: 3}
      propertyPath: m_LocalPosition.x
      value: -0.5
      objectReference: {fileID: 0}
    - target: {fileID: 3579247877882701033, guid: 611f373a719c6f94ab26694ab17a1941, type: 3}
      propertyPath: m_LocalPosition.y
      value: 0.5
      objectReference: {fileID: 0}
    - target: {fileID: 3579247877882701033, guid: 611f373a719c6f94ab26694ab17a1941, type: 3}
      propertyPath: m_LocalPosition.z
      value: 0
      objectReference: {fileID: 0}
    - target: {fileID: 3579247877882701033, guid: 611f373a719c6f94ab26694ab17a1941, type: 3}
      propertyPath: m_LocalRotation.w
      value: 1
      objectReference: {fileID: 0}
    - target: {fileID: 3579247877882701033, guid: 611f373a719c6f94ab26694ab17a1941, type: 3}
      propertyPath: m_LocalRotation.x
      value: 0
      objectReference: {fileID: 0}
    - target: {fileID: 3579247877882701033, guid: 611f373a719c6f94ab26694ab17a1941, type: 3}
      propertyPath: m_LocalRotation.y
      value: 0
      objectReference: {fileID: 0}
    - target: {fileID: 3579247877882701033, guid: 611f373a719c6f94ab26694ab17a1941, type: 3}
      propertyPath: m_LocalRotation.z
      value: 0
      objectReference: {fileID: 0}
    - target: {fileID: 3579247877882701033, guid: 611f373a719c6f94ab26694ab17a1941, type: 3}
      propertyPath: m_LocalEulerAnglesHint.x
      value: 0
      objectReference: {fileID: 0}
    - target: {fileID: 3579247877882701033, guid: 611f373a719c6f94ab26694ab17a1941, type: 3}
      propertyPath: m_LocalEulerAnglesHint.y
      value: 0
      objectReference: {fileID: 0}
    - target: {fileID: 3579247877882701033, guid: 611f373a719c6f94ab26694ab17a1941, type: 3}
      propertyPath: m_LocalEulerAnglesHint.z
      value: 0
      objectReference: {fileID: 0}
    - target: {fileID: 3579247877882701037, guid: 611f373a719c6f94ab26694ab17a1941, type: 3}
      propertyPath: m_Name
      value: RandomSpikes
      objectReference: {fileID: 0}
    m_RemovedComponents: []
  m_SourcePrefab: {fileID: 100100000, guid: 611f373a719c6f94ab26694ab17a1941, type: 3}
--- !u!4 &1853574204 stripped
Transform:
  m_CorrespondingSourceObject: {fileID: 3579247877882701033, guid: 611f373a719c6f94ab26694ab17a1941, type: 3}
  m_PrefabInstance: {fileID: 1853574203}
  m_PrefabAsset: {fileID: 0}
--- !u!1001 &1901175148
PrefabInstance:
  m_ObjectHideFlags: 0
  serializedVersion: 2
  m_Modification:
    m_TransformParent: {fileID: 837527199}
    m_Modifications:
    - target: {fileID: 5621556818749388991, guid: 4a8c0f976fcfcd7449ad33d78135e6aa, type: 3}
      propertyPath: m_RootOrder
      value: 0
      objectReference: {fileID: 0}
    - target: {fileID: 5621556818749388991, guid: 4a8c0f976fcfcd7449ad33d78135e6aa, type: 3}
      propertyPath: m_LocalPosition.x
      value: -2.5
      objectReference: {fileID: 0}
    - target: {fileID: 5621556818749388991, guid: 4a8c0f976fcfcd7449ad33d78135e6aa, type: 3}
      propertyPath: m_LocalPosition.y
      value: 1.5
      objectReference: {fileID: 0}
    - target: {fileID: 5621556818749388991, guid: 4a8c0f976fcfcd7449ad33d78135e6aa, type: 3}
      propertyPath: m_LocalPosition.z
      value: 0
      objectReference: {fileID: 0}
    - target: {fileID: 5621556818749388991, guid: 4a8c0f976fcfcd7449ad33d78135e6aa, type: 3}
      propertyPath: m_LocalRotation.w
      value: 1
      objectReference: {fileID: 0}
    - target: {fileID: 5621556818749388991, guid: 4a8c0f976fcfcd7449ad33d78135e6aa, type: 3}
      propertyPath: m_LocalRotation.x
      value: 0
      objectReference: {fileID: 0}
    - target: {fileID: 5621556818749388991, guid: 4a8c0f976fcfcd7449ad33d78135e6aa, type: 3}
      propertyPath: m_LocalRotation.y
      value: 0
      objectReference: {fileID: 0}
    - target: {fileID: 5621556818749388991, guid: 4a8c0f976fcfcd7449ad33d78135e6aa, type: 3}
      propertyPath: m_LocalRotation.z
      value: 0
      objectReference: {fileID: 0}
    - target: {fileID: 5621556818749388991, guid: 4a8c0f976fcfcd7449ad33d78135e6aa, type: 3}
      propertyPath: m_LocalEulerAnglesHint.x
      value: 0
      objectReference: {fileID: 0}
    - target: {fileID: 5621556818749388991, guid: 4a8c0f976fcfcd7449ad33d78135e6aa, type: 3}
      propertyPath: m_LocalEulerAnglesHint.y
      value: 0
      objectReference: {fileID: 0}
    - target: {fileID: 5621556818749388991, guid: 4a8c0f976fcfcd7449ad33d78135e6aa, type: 3}
      propertyPath: m_LocalEulerAnglesHint.z
      value: 0
      objectReference: {fileID: 0}
    - target: {fileID: 8336128614632371939, guid: 4a8c0f976fcfcd7449ad33d78135e6aa, type: 3}
      propertyPath: m_Name
      value: Spawnpoint
      objectReference: {fileID: 0}
    m_RemovedComponents: []
  m_SourcePrefab: {fileID: 100100000, guid: 4a8c0f976fcfcd7449ad33d78135e6aa, type: 3}
--- !u!4 &1901175149 stripped
Transform:
  m_CorrespondingSourceObject: {fileID: 5621556818749388991, guid: 4a8c0f976fcfcd7449ad33d78135e6aa, type: 3}
  m_PrefabInstance: {fileID: 1901175148}
  m_PrefabAsset: {fileID: 0}
--- !u!1001 &2074645787
PrefabInstance:
  m_ObjectHideFlags: 0
  serializedVersion: 2
  m_Modification:
    m_TransformParent: {fileID: 837527199}
    m_Modifications:
    - target: {fileID: 2076303148891484817, guid: 448c6c033fb65fe4299f62c0563a2aec, type: 3}
      propertyPath: m_Name
      value: RandomInsect
      objectReference: {fileID: 0}
    - target: {fileID: 3763472824446414104, guid: 448c6c033fb65fe4299f62c0563a2aec, type: 3}
      propertyPath: m_RootOrder
      value: 1
      objectReference: {fileID: 0}
    - target: {fileID: 3763472824446414104, guid: 448c6c033fb65fe4299f62c0563a2aec, type: 3}
      propertyPath: m_LocalPosition.x
      value: -3.5
      objectReference: {fileID: 0}
    - target: {fileID: 3763472824446414104, guid: 448c6c033fb65fe4299f62c0563a2aec, type: 3}
      propertyPath: m_LocalPosition.y
      value: -3.5
      objectReference: {fileID: 0}
    - target: {fileID: 3763472824446414104, guid: 448c6c033fb65fe4299f62c0563a2aec, type: 3}
      propertyPath: m_LocalPosition.z
      value: 0
      objectReference: {fileID: 0}
    - target: {fileID: 3763472824446414104, guid: 448c6c033fb65fe4299f62c0563a2aec, type: 3}
      propertyPath: m_LocalRotation.w
      value: 1
      objectReference: {fileID: 0}
    - target: {fileID: 3763472824446414104, guid: 448c6c033fb65fe4299f62c0563a2aec, type: 3}
      propertyPath: m_LocalRotation.x
      value: 0
      objectReference: {fileID: 0}
    - target: {fileID: 3763472824446414104, guid: 448c6c033fb65fe4299f62c0563a2aec, type: 3}
      propertyPath: m_LocalRotation.y
      value: 0
      objectReference: {fileID: 0}
    - target: {fileID: 3763472824446414104, guid: 448c6c033fb65fe4299f62c0563a2aec, type: 3}
      propertyPath: m_LocalRotation.z
      value: 0
      objectReference: {fileID: 0}
    - target: {fileID: 3763472824446414104, guid: 448c6c033fb65fe4299f62c0563a2aec, type: 3}
      propertyPath: m_LocalEulerAnglesHint.x
      value: 0
      objectReference: {fileID: 0}
    - target: {fileID: 3763472824446414104, guid: 448c6c033fb65fe4299f62c0563a2aec, type: 3}
      propertyPath: m_LocalEulerAnglesHint.y
      value: 0
      objectReference: {fileID: 0}
    - target: {fileID: 3763472824446414104, guid: 448c6c033fb65fe4299f62c0563a2aec, type: 3}
      propertyPath: m_LocalEulerAnglesHint.z
      value: 0
      objectReference: {fileID: 0}
    m_RemovedComponents: []
  m_SourcePrefab: {fileID: 100100000, guid: 448c6c033fb65fe4299f62c0563a2aec, type: 3}
--- !u!4 &2074645788 stripped
Transform:
  m_CorrespondingSourceObject: {fileID: 3763472824446414104, guid: 448c6c033fb65fe4299f62c0563a2aec, type: 3}
  m_PrefabInstance: {fileID: 2074645787}
  m_PrefabAsset: {fileID: 0}
