%YAML 1.1
%TAG !u! tag:unity3d.com,2011:
--- !u!114 &11400000
MonoBehaviour:
  m_ObjectHideFlags: 0
  m_CorrespondingSourceObject: {fileID: 0}
  m_PrefabInstance: {fileID: 0}
  m_PrefabAsset: {fileID: 0}
  m_GameObject: {fileID: 0}
  m_Enabled: 1
  m_EditorHideFlags: 0
  m_Script: {fileID: 11500000, guid: d91f8de8dde2408dacbce58fc65e8826, type: 3}
  m_Name: Beetle
  m_EditorClassIdentifier: 
  insectName: Beetle
  animator: {fileID: 9100000, guid: 5dfd752240a164f429041157c27d2b34, type: 2}
  initialSprite: {fileID: -2872327095807841368, guid: c13dac27a0a72264cacd2c1d3a1fe08c, type: 3}
