%YAML 1.1
%TAG !u! tag:unity3d.com,2011:
--- !u!114 &11400000
MonoBehaviour:
  m_ObjectHideFlags: 0
  m_CorrespondingSourceObject: {fileID: 0}
  m_PrefabInstance: {fileID: 0}
  m_PrefabAsset: {fileID: 0}
  m_GameObject: {fileID: 0}
  m_Enabled: 1
  m_EditorHideFlags: 0
  m_Script: {fileID: 11500000, guid: 1c63e9930078442aa987ca9a1511ae44, type: 3}
  m_Name: ApplicationVariables
  m_EditorClassIdentifier: 
  _data:
    _json: '{"declarations":{"collection":{"$content":[{"name":"StartGameEvent","value":{"$content":true,"$type":"System.Boolean"},"$version":"A"}],"$version":"A"},"$version":"A"}}'
    _objectReferences: []
