%YAML 1.1
%TAG !u! tag:unity3d.com,2011:
--- !u!1 &2287758624145171841
GameObject:
  m_ObjectHideFlags: 0
  m_CorrespondingSourceObject: {fileID: 0}
  m_PrefabInstance: {fileID: 0}
  m_PrefabAsset: {fileID: 0}
  serializedVersion: 6
  m_Component:
  - component: {fileID: 6678915710259066468}
  - component: {fileID: 6564238779834008811}
  - component: {fileID: 7639477012300231599}
  m_Layer: 0
  m_Name: Layer1
  m_TagString: Untagged
  m_Icon: {fileID: 0}
  m_NavMeshLayer: 0
  m_StaticEditorFlags: 0
  m_IsActive: 1
--- !u!4 &6678915710259066468
Transform:
  m_ObjectHideFlags: 0
  m_CorrespondingSourceObject: {fileID: 0}
  m_PrefabInstance: {fileID: 0}
  m_PrefabAsset: {fileID: 0}
  m_GameObject: {fileID: 2287758624145171841}
  m_LocalRotation: {x: -0, y: -0, z: -0, w: 1}
  m_LocalPosition: {x: 0, y: 0, z: 0}
  m_LocalScale: {x: 1, y: 1, z: 1}
  m_Children:
  - {fileID: 958102904622200325}
  - {fileID: 1708613784289490874}
  - {fileID: 8241885034720079067}
  - {fileID: 1030030389159213666}
  - {fileID: 1029042614912424656}
  - {fileID: 3697922639699645316}
  m_Father: {fileID: 1279854175669999686}
  m_RootOrder: 0
  m_LocalEulerAnglesHint: {x: 0, y: 0, z: 0}
--- !u!1839735485 &6564238779834008811
Tilemap:
  m_ObjectHideFlags: 0
  m_CorrespondingSourceObject: {fileID: 0}
  m_PrefabInstance: {fileID: 0}
  m_PrefabAsset: {fileID: 0}
  m_GameObject: {fileID: 2287758624145171841}
  m_Enabled: 1
  m_Tiles: {}
  m_AnimatedTiles: {}
  m_TileAssetArray: []
  m_TileSpriteArray: []
  m_TileMatrixArray: []
  m_TileColorArray: []
  m_TileObjectToInstantiateArray: []
  m_AnimationFrameRate: 1
  m_Color: {r: 1, g: 1, b: 1, a: 1}
  m_Origin: {x: 0, y: 0, z: 0}
  m_Size: {x: 0, y: 0, z: 1}
  m_TileAnchor: {x: 0.5, y: 0.5, z: 0}
  m_TileOrientation: 0
  m_TileOrientationMatrix:
    e00: 1
    e01: 0
    e02: 0
    e03: 0
    e10: 0
    e11: 1
    e12: 0
    e13: 0
    e20: 0
    e21: 0
    e22: 1
    e23: 0
    e30: 0
    e31: 0
    e32: 0
    e33: 1
--- !u!483693784 &7639477012300231599
TilemapRenderer:
  m_ObjectHideFlags: 0
  m_CorrespondingSourceObject: {fileID: 0}
  m_PrefabInstance: {fileID: 0}
  m_PrefabAsset: {fileID: 0}
  m_GameObject: {fileID: 2287758624145171841}
  m_Enabled: 1
  m_CastShadows: 0
  m_ReceiveShadows: 0
  m_DynamicOccludee: 0
  m_StaticShadowCaster: 0
  m_MotionVectors: 1
  m_LightProbeUsage: 0
  m_ReflectionProbeUsage: 0
  m_RayTracingMode: 0
  m_RayTraceProcedural: 0
  m_RenderingLayerMask: 1
  m_RendererPriority: 0
  m_Materials:
  - {fileID: 2100000, guid: a97c105638bdf8b4a8650670310a4cd3, type: 2}
  m_StaticBatchInfo:
    firstSubMesh: 0
    subMeshCount: 0
  m_StaticBatchRoot: {fileID: 0}
  m_ProbeAnchor: {fileID: 0}
  m_LightProbeVolumeOverride: {fileID: 0}
  m_ScaleInLightmap: 1
  m_ReceiveGI: 1
  m_PreserveUVs: 0
  m_IgnoreNormalsForChartDetection: 0
  m_ImportantGI: 0
  m_StitchLightmapSeams: 1
  m_SelectedEditorRenderState: 0
  m_MinimumChartSize: 4
  m_AutoUVMaxDistance: 0.5
  m_AutoUVMaxAngle: 89
  m_LightmapParameters: {fileID: 0}
  m_SortingLayerID: 0
  m_SortingLayer: 0
  m_SortingOrder: 0
  m_ChunkSize: {x: 32, y: 32, z: 32}
  m_ChunkCullingBounds: {x: 0, y: 0, z: 0}
  m_MaxChunkCount: 16
  m_MaxFrameAge: 16
  m_SortOrder: 0
  m_Mode: 0
  m_DetectChunkCullingBounds: 0
  m_MaskInteraction: 0
--- !u!1 &2996404224836333359
GameObject:
  m_ObjectHideFlags: 0
  m_CorrespondingSourceObject: {fileID: 0}
  m_PrefabInstance: {fileID: 0}
  m_PrefabAsset: {fileID: 0}
  serializedVersion: 6
  m_Component:
  - component: {fileID: 1279854175669999686}
  - component: {fileID: 208378192147249592}
  m_Layer: 0
  m_Name: GameEntities
  m_TagString: Untagged
  m_Icon: {fileID: 0}
  m_NavMeshLayer: 0
  m_StaticEditorFlags: 0
  m_IsActive: 1
--- !u!4 &1279854175669999686
Transform:
  m_ObjectHideFlags: 0
  m_CorrespondingSourceObject: {fileID: 0}
  m_PrefabInstance: {fileID: 0}
  m_PrefabAsset: {fileID: 0}
  m_GameObject: {fileID: 2996404224836333359}
  m_LocalRotation: {x: 0, y: 0, z: 0, w: 1}
  m_LocalPosition: {x: 0, y: 0, z: 0}
  m_LocalScale: {x: 1, y: 1, z: 1}
  m_Children:
  - {fileID: 6678915710259066468}
  m_Father: {fileID: 0}
  m_RootOrder: 0
  m_LocalEulerAnglesHint: {x: 0, y: 0, z: 0}
--- !u!156049354 &208378192147249592
Grid:
  m_ObjectHideFlags: 0
  m_CorrespondingSourceObject: {fileID: 0}
  m_PrefabInstance: {fileID: 0}
  m_PrefabAsset: {fileID: 0}
  m_GameObject: {fileID: 2996404224836333359}
  m_Enabled: 1
  m_CellSize: {x: 1, y: 1, z: 0}
  m_CellGap: {x: 0, y: 0, z: 0}
  m_CellLayout: 0
  m_CellSwizzle: 0
--- !u!1001 &1882858893960224410
PrefabInstance:
  m_ObjectHideFlags: 0
  serializedVersion: 2
  m_Modification:
    m_TransformParent: {fileID: 6678915710259066468}
    m_Modifications:
    - target: {fileID: 7512088796804297280, guid: 551007f7ef739ef429a2a1cb6632a744, type: 3}
      propertyPath: m_DynamicOccludee
      value: 0
      objectReference: {fileID: 0}
    - target: {fileID: 7512088796804297281, guid: 551007f7ef739ef429a2a1cb6632a744, type: 3}
      propertyPath: m_RootOrder
      value: 2
      objectReference: {fileID: 0}
    - target: {fileID: 7512088796804297281, guid: 551007f7ef739ef429a2a1cb6632a744, type: 3}
      propertyPath: m_LocalPosition.x
      value: 1.5
      objectReference: {fileID: 0}
    - target: {fileID: 7512088796804297281, guid: 551007f7ef739ef429a2a1cb6632a744, type: 3}
      propertyPath: m_LocalPosition.y
      value: 0.5
      objectReference: {fileID: 0}
    - target: {fileID: 7512088796804297281, guid: 551007f7ef739ef429a2a1cb6632a744, type: 3}
      propertyPath: m_LocalPosition.z
      value: 0
      objectReference: {fileID: 0}
    - target: {fileID: 7512088796804297281, guid: 551007f7ef739ef429a2a1cb6632a744, type: 3}
      propertyPath: m_LocalRotation.w
      value: 1
      objectReference: {fileID: 0}
    - target: {fileID: 7512088796804297281, guid: 551007f7ef739ef429a2a1cb6632a744, type: 3}
      propertyPath: m_LocalRotation.x
      value: 0
      objectReference: {fileID: 0}
    - target: {fileID: 7512088796804297281, guid: 551007f7ef739ef429a2a1cb6632a744, type: 3}
      propertyPath: m_LocalRotation.y
      value: 0
      objectReference: {fileID: 0}
    - target: {fileID: 7512088796804297281, guid: 551007f7ef739ef429a2a1cb6632a744, type: 3}
      propertyPath: m_LocalRotation.z
      value: 0
      objectReference: {fileID: 0}
    - target: {fileID: 7512088796804297281, guid: 551007f7ef739ef429a2a1cb6632a744, type: 3}
      propertyPath: m_LocalEulerAnglesHint.x
      value: 0
      objectReference: {fileID: 0}
    - target: {fileID: 7512088796804297281, guid: 551007f7ef739ef429a2a1cb6632a744, type: 3}
      propertyPath: m_LocalEulerAnglesHint.y
      value: 0
      objectReference: {fileID: 0}
    - target: {fileID: 7512088796804297281, guid: 551007f7ef739ef429a2a1cb6632a744, type: 3}
      propertyPath: m_LocalEulerAnglesHint.z
      value: 0
      objectReference: {fileID: 0}
    - target: {fileID: 7512088796804297285, guid: 551007f7ef739ef429a2a1cb6632a744, type: 3}
      propertyPath: m_Name
      value: RandomExit
      objectReference: {fileID: 0}
    m_RemovedComponents: []
  m_SourcePrefab: {fileID: 100100000, guid: 551007f7ef739ef429a2a1cb6632a744, type: 3}
--- !u!4 &8241885034720079067 stripped
Transform:
  m_CorrespondingSourceObject: {fileID: 7512088796804297281, guid: 551007f7ef739ef429a2a1cb6632a744, type: 3}
  m_PrefabInstance: {fileID: 1882858893960224410}
  m_PrefabAsset: {fileID: 0}
--- !u!1001 &3551129276839347029
PrefabInstance:
  m_ObjectHideFlags: 0
  serializedVersion: 2
  m_Modification:
    m_TransformParent: {fileID: 6678915710259066468}
    m_Modifications:
    - target: {fileID: 4544063361883036033, guid: e233ab8c7fe80f2418f78fb93aa5efbd, type: 3}
      propertyPath: m_Name
      value: FallingStuff
      objectReference: {fileID: 0}
    - target: {fileID: 4544063361883036036, guid: e233ab8c7fe80f2418f78fb93aa5efbd, type: 3}
      propertyPath: m_DynamicOccludee
      value: 0
      objectReference: {fileID: 0}
    - target: {fileID: 4544063361883036037, guid: e233ab8c7fe80f2418f78fb93aa5efbd, type: 3}
      propertyPath: m_RootOrder
      value: 4
      objectReference: {fileID: 0}
    - target: {fileID: 4544063361883036037, guid: e233ab8c7fe80f2418f78fb93aa5efbd, type: 3}
      propertyPath: m_LocalPosition.x
      value: 0.5
      objectReference: {fileID: 0}
    - target: {fileID: 4544063361883036037, guid: e233ab8c7fe80f2418f78fb93aa5efbd, type: 3}
      propertyPath: m_LocalPosition.y
      value: -0.5
      objectReference: {fileID: 0}
    - target: {fileID: 4544063361883036037, guid: e233ab8c7fe80f2418f78fb93aa5efbd, type: 3}
      propertyPath: m_LocalPosition.z
      value: 0
      objectReference: {fileID: 0}
    - target: {fileID: 4544063361883036037, guid: e233ab8c7fe80f2418f78fb93aa5efbd, type: 3}
      propertyPath: m_LocalRotation.w
      value: 1
      objectReference: {fileID: 0}
    - target: {fileID: 4544063361883036037, guid: e233ab8c7fe80f2418f78fb93aa5efbd, type: 3}
      propertyPath: m_LocalRotation.x
      value: 0
      objectReference: {fileID: 0}
    - target: {fileID: 4544063361883036037, guid: e233ab8c7fe80f2418f78fb93aa5efbd, type: 3}
      propertyPath: m_LocalRotation.y
      value: 0
      objectReference: {fileID: 0}
    - target: {fileID: 4544063361883036037, guid: e233ab8c7fe80f2418f78fb93aa5efbd, type: 3}
      propertyPath: m_LocalRotation.z
      value: 0
      objectReference: {fileID: 0}
    - target: {fileID: 4544063361883036037, guid: e233ab8c7fe80f2418f78fb93aa5efbd, type: 3}
      propertyPath: m_LocalEulerAnglesHint.x
      value: 0
      objectReference: {fileID: 0}
    - target: {fileID: 4544063361883036037, guid: e233ab8c7fe80f2418f78fb93aa5efbd, type: 3}
      propertyPath: m_LocalEulerAnglesHint.y
      value: 0
      objectReference: {fileID: 0}
    - target: {fileID: 4544063361883036037, guid: e233ab8c7fe80f2418f78fb93aa5efbd, type: 3}
      propertyPath: m_LocalEulerAnglesHint.z
      value: 0
      objectReference: {fileID: 0}
    m_RemovedComponents: []
  m_SourcePrefab: {fileID: 100100000, guid: e233ab8c7fe80f2418f78fb93aa5efbd, type: 3}
--- !u!4 &1029042614912424656 stripped
Transform:
  m_CorrespondingSourceObject: {fileID: 4544063361883036037, guid: e233ab8c7fe80f2418f78fb93aa5efbd, type: 3}
  m_PrefabInstance: {fileID: 3551129276839347029}
  m_PrefabAsset: {fileID: 0}
--- !u!1001 &3658043582489392258
PrefabInstance:
  m_ObjectHideFlags: 0
  serializedVersion: 2
  m_Modification:
    m_TransformParent: {fileID: 6678915710259066468}
    m_Modifications:
    - target: {fileID: 2699288328620229413, guid: ffdcbda4dbfda4348867bdb1301be554, type: 3}
      propertyPath: m_Name
      value: Pillar
      objectReference: {fileID: 0}
    - target: {fileID: 2699288328620229432, guid: ffdcbda4dbfda4348867bdb1301be554, type: 3}
      propertyPath: m_RootOrder
      value: 1
      objectReference: {fileID: 0}
    - target: {fileID: 2699288328620229432, guid: ffdcbda4dbfda4348867bdb1301be554, type: 3}
      propertyPath: m_LocalPosition.x
      value: 0.5
      objectReference: {fileID: 0}
    - target: {fileID: 2699288328620229432, guid: ffdcbda4dbfda4348867bdb1301be554, type: 3}
      propertyPath: m_LocalPosition.y
      value: 0.5
      objectReference: {fileID: 0}
    - target: {fileID: 2699288328620229432, guid: ffdcbda4dbfda4348867bdb1301be554, type: 3}
      propertyPath: m_LocalPosition.z
      value: 0
      objectReference: {fileID: 0}
    - target: {fileID: 2699288328620229432, guid: ffdcbda4dbfda4348867bdb1301be554, type: 3}
      propertyPath: m_LocalRotation.w
      value: 1
      objectReference: {fileID: 0}
    - target: {fileID: 2699288328620229432, guid: ffdcbda4dbfda4348867bdb1301be554, type: 3}
      propertyPath: m_LocalRotation.x
      value: 0
      objectReference: {fileID: 0}
    - target: {fileID: 2699288328620229432, guid: ffdcbda4dbfda4348867bdb1301be554, type: 3}
      propertyPath: m_LocalRotation.y
      value: 0
      objectReference: {fileID: 0}
    - target: {fileID: 2699288328620229432, guid: ffdcbda4dbfda4348867bdb1301be554, type: 3}
      propertyPath: m_LocalRotation.z
      value: 0
      objectReference: {fileID: 0}
    - target: {fileID: 2699288328620229432, guid: ffdcbda4dbfda4348867bdb1301be554, type: 3}
      propertyPath: m_LocalEulerAnglesHint.x
      value: 0
      objectReference: {fileID: 0}
    - target: {fileID: 2699288328620229432, guid: ffdcbda4dbfda4348867bdb1301be554, type: 3}
      propertyPath: m_LocalEulerAnglesHint.y
      value: 0
      objectReference: {fileID: 0}
    - target: {fileID: 2699288328620229432, guid: ffdcbda4dbfda4348867bdb1301be554, type: 3}
      propertyPath: m_LocalEulerAnglesHint.z
      value: 0
      objectReference: {fileID: 0}
    - target: {fileID: 2699288328620229435, guid: ffdcbda4dbfda4348867bdb1301be554, type: 3}
      propertyPath: m_DynamicOccludee
      value: 0
      objectReference: {fileID: 0}
    m_RemovedComponents: []
  m_SourcePrefab: {fileID: 100100000, guid: ffdcbda4dbfda4348867bdb1301be554, type: 3}
--- !u!4 &1708613784289490874 stripped
Transform:
  m_CorrespondingSourceObject: {fileID: 2699288328620229432, guid: ffdcbda4dbfda4348867bdb1301be554, type: 3}
  m_PrefabInstance: {fileID: 3658043582489392258}
  m_PrefabAsset: {fileID: 0}
--- !u!1001 &4139185310010465053
PrefabInstance:
  m_ObjectHideFlags: 0
  serializedVersion: 2
  m_Modification:
    m_TransformParent: {fileID: 6678915710259066468}
    m_Modifications:
    - target: {fileID: 1020936412276589612, guid: 448c6c033fb65fe4299f62c0563a2aec, type: 3}
      propertyPath: m_DynamicOccludee
      value: 0
      objectReference: {fileID: 0}
    - target: {fileID: 2076303148891484817, guid: 448c6c033fb65fe4299f62c0563a2aec, type: 3}
      propertyPath: m_Name
      value: RandomInsect
      objectReference: {fileID: 0}
    - target: {fileID: 3763472824446414104, guid: 448c6c033fb65fe4299f62c0563a2aec, type: 3}
      propertyPath: m_RootOrder
      value: 0
      objectReference: {fileID: 0}
    - target: {fileID: 3763472824446414104, guid: 448c6c033fb65fe4299f62c0563a2aec, type: 3}
      propertyPath: m_LocalPosition.x
      value: -0.5
      objectReference: {fileID: 0}
    - target: {fileID: 3763472824446414104, guid: 448c6c033fb65fe4299f62c0563a2aec, type: 3}
      propertyPath: m_LocalPosition.y
      value: 0.5
      objectReference: {fileID: 0}
    - target: {fileID: 3763472824446414104, guid: 448c6c033fb65fe4299f62c0563a2aec, type: 3}
      propertyPath: m_LocalPosition.z
      value: 0
      objectReference: {fileID: 0}
    - target: {fileID: 3763472824446414104, guid: 448c6c033fb65fe4299f62c0563a2aec, type: 3}
      propertyPath: m_LocalRotation.w
      value: 1
      objectReference: {fileID: 0}
    - target: {fileID: 3763472824446414104, guid: 448c6c033fb65fe4299f62c0563a2aec, type: 3}
      propertyPath: m_LocalRotation.x
      value: 0
      objectReference: {fileID: 0}
    - target: {fileID: 3763472824446414104, guid: 448c6c033fb65fe4299f62c0563a2aec, type: 3}
      propertyPath: m_LocalRotation.y
      value: 0
      objectReference: {fileID: 0}
    - target: {fileID: 3763472824446414104, guid: 448c6c033fb65fe4299f62c0563a2aec, type: 3}
      propertyPath: m_LocalRotation.z
      value: 0
      objectReference: {fileID: 0}
    - target: {fileID: 3763472824446414104, guid: 448c6c033fb65fe4299f62c0563a2aec, type: 3}
      propertyPath: m_LocalEulerAnglesHint.x
      value: 0
      objectReference: {fileID: 0}
    - target: {fileID: 3763472824446414104, guid: 448c6c033fb65fe4299f62c0563a2aec, type: 3}
      propertyPath: m_LocalEulerAnglesHint.y
      value: 0
      objectReference: {fileID: 0}
    - target: {fileID: 3763472824446414104, guid: 448c6c033fb65fe4299f62c0563a2aec, type: 3}
      propertyPath: m_LocalEulerAnglesHint.z
      value: 0
      objectReference: {fileID: 0}
    m_RemovedComponents: []
  m_SourcePrefab: {fileID: 100100000, guid: 448c6c033fb65fe4299f62c0563a2aec, type: 3}
--- !u!4 &958102904622200325 stripped
Transform:
  m_CorrespondingSourceObject: {fileID: 3763472824446414104, guid: 448c6c033fb65fe4299f62c0563a2aec, type: 3}
  m_PrefabInstance: {fileID: 4139185310010465053}
  m_PrefabAsset: {fileID: 0}
--- !u!1001 &4604769906845933195
PrefabInstance:
  m_ObjectHideFlags: 0
  serializedVersion: 2
  m_Modification:
    m_TransformParent: {fileID: 6678915710259066468}
    m_Modifications:
    - target: {fileID: 3579247877882701032, guid: 611f373a719c6f94ab26694ab17a1941, type: 3}
      propertyPath: m_DynamicOccludee
      value: 0
      objectReference: {fileID: 0}
    - target: {fileID: 3579247877882701033, guid: 611f373a719c6f94ab26694ab17a1941, type: 3}
      propertyPath: m_RootOrder
      value: 3
      objectReference: {fileID: 0}
    - target: {fileID: 3579247877882701033, guid: 611f373a719c6f94ab26694ab17a1941, type: 3}
      propertyPath: m_LocalPosition.x
      value: -0.5
      objectReference: {fileID: 0}
    - target: {fileID: 3579247877882701033, guid: 611f373a719c6f94ab26694ab17a1941, type: 3}
      propertyPath: m_LocalPosition.y
      value: -0.5
      objectReference: {fileID: 0}
    - target: {fileID: 3579247877882701033, guid: 611f373a719c6f94ab26694ab17a1941, type: 3}
      propertyPath: m_LocalPosition.z
      value: 0
      objectReference: {fileID: 0}
    - target: {fileID: 3579247877882701033, guid: 611f373a719c6f94ab26694ab17a1941, type: 3}
      propertyPath: m_LocalRotation.w
      value: 1
      objectReference: {fileID: 0}
    - target: {fileID: 3579247877882701033, guid: 611f373a719c6f94ab26694ab17a1941, type: 3}
      propertyPath: m_LocalRotation.x
      value: 0
      objectReference: {fileID: 0}
    - target: {fileID: 3579247877882701033, guid: 611f373a719c6f94ab26694ab17a1941, type: 3}
      propertyPath: m_LocalRotation.y
      value: 0
      objectReference: {fileID: 0}
    - target: {fileID: 3579247877882701033, guid: 611f373a719c6f94ab26694ab17a1941, type: 3}
      propertyPath: m_LocalRotation.z
      value: 0
      objectReference: {fileID: 0}
    - target: {fileID: 3579247877882701033, guid: 611f373a719c6f94ab26694ab17a1941, type: 3}
      propertyPath: m_LocalEulerAnglesHint.x
      value: 0
      objectReference: {fileID: 0}
    - target: {fileID: 3579247877882701033, guid: 611f373a719c6f94ab26694ab17a1941, type: 3}
      propertyPath: m_LocalEulerAnglesHint.y
      value: 0
      objectReference: {fileID: 0}
    - target: {fileID: 3579247877882701033, guid: 611f373a719c6f94ab26694ab17a1941, type: 3}
      propertyPath: m_LocalEulerAnglesHint.z
      value: 0
      objectReference: {fileID: 0}
    - target: {fileID: 3579247877882701037, guid: 611f373a719c6f94ab26694ab17a1941, type: 3}
      propertyPath: m_Name
      value: RandomSpikes
      objectReference: {fileID: 0}
    m_RemovedComponents: []
  m_SourcePrefab: {fileID: 100100000, guid: 611f373a719c6f94ab26694ab17a1941, type: 3}
--- !u!4 &1030030389159213666 stripped
Transform:
  m_CorrespondingSourceObject: {fileID: 3579247877882701033, guid: 611f373a719c6f94ab26694ab17a1941, type: 3}
  m_PrefabInstance: {fileID: 4604769906845933195}
  m_PrefabAsset: {fileID: 0}
--- !u!1001 &9030387027527822139
PrefabInstance:
  m_ObjectHideFlags: 0
  serializedVersion: 2
  m_Modification:
    m_TransformParent: {fileID: 6678915710259066468}
    m_Modifications:
    - target: {fileID: 5621556818749388991, guid: 4a8c0f976fcfcd7449ad33d78135e6aa, type: 3}
      propertyPath: m_RootOrder
      value: 5
      objectReference: {fileID: 0}
    - target: {fileID: 5621556818749388991, guid: 4a8c0f976fcfcd7449ad33d78135e6aa, type: 3}
      propertyPath: m_LocalPosition.x
      value: 1.5
      objectReference: {fileID: 0}
    - target: {fileID: 5621556818749388991, guid: 4a8c0f976fcfcd7449ad33d78135e6aa, type: 3}
      propertyPath: m_LocalPosition.y
      value: -0.5
      objectReference: {fileID: 0}
    - target: {fileID: 5621556818749388991, guid: 4a8c0f976fcfcd7449ad33d78135e6aa, type: 3}
      propertyPath: m_LocalPosition.z
      value: 0
      objectReference: {fileID: 0}
    - target: {fileID: 5621556818749388991, guid: 4a8c0f976fcfcd7449ad33d78135e6aa, type: 3}
      propertyPath: m_LocalRotation.w
      value: 1
      objectReference: {fileID: 0}
    - target: {fileID: 5621556818749388991, guid: 4a8c0f976fcfcd7449ad33d78135e6aa, type: 3}
      propertyPath: m_LocalRotation.x
      value: 0
      objectReference: {fileID: 0}
    - target: {fileID: 5621556818749388991, guid: 4a8c0f976fcfcd7449ad33d78135e6aa, type: 3}
      propertyPath: m_LocalRotation.y
      value: 0
      objectReference: {fileID: 0}
    - target: {fileID: 5621556818749388991, guid: 4a8c0f976fcfcd7449ad33d78135e6aa, type: 3}
      propertyPath: m_LocalRotation.z
      value: 0
      objectReference: {fileID: 0}
    - target: {fileID: 5621556818749388991, guid: 4a8c0f976fcfcd7449ad33d78135e6aa, type: 3}
      propertyPath: m_LocalEulerAnglesHint.x
      value: 0
      objectReference: {fileID: 0}
    - target: {fileID: 5621556818749388991, guid: 4a8c0f976fcfcd7449ad33d78135e6aa, type: 3}
      propertyPath: m_LocalEulerAnglesHint.y
      value: 0
      objectReference: {fileID: 0}
    - target: {fileID: 5621556818749388991, guid: 4a8c0f976fcfcd7449ad33d78135e6aa, type: 3}
      propertyPath: m_LocalEulerAnglesHint.z
      value: 0
      objectReference: {fileID: 0}
    - target: {fileID: 8336128614632371939, guid: 4a8c0f976fcfcd7449ad33d78135e6aa, type: 3}
      propertyPath: m_Name
      value: Spawnpoint
      objectReference: {fileID: 0}
    - target: {fileID: 9087788672973563944, guid: 4a8c0f976fcfcd7449ad33d78135e6aa, type: 3}
      propertyPath: m_DynamicOccludee
      value: 0
      objectReference: {fileID: 0}
    m_RemovedComponents: []
  m_SourcePrefab: {fileID: 100100000, guid: 4a8c0f976fcfcd7449ad33d78135e6aa, type: 3}
--- !u!4 &3697922639699645316 stripped
Transform:
  m_CorrespondingSourceObject: {fileID: 5621556818749388991, guid: 4a8c0f976fcfcd7449ad33d78135e6aa, type: 3}
  m_PrefabInstance: {fileID: 9030387027527822139}
  m_PrefabAsset: {fileID: 0}
--- !u!114 &4628670181912608220
MonoBehaviour:
  m_ObjectHideFlags: 0
  m_CorrespondingSourceObject: {fileID: 0}
  m_PrefabInstance: {fileID: 0}
  m_PrefabAsset: {fileID: 0}
  m_GameObject: {fileID: 0}
  m_Enabled: 1
  m_EditorHideFlags: 0
  m_Script: {fileID: 12395, guid: 0000000000000000e000000000000000, type: 0}
  m_Name: Palette Settings
  m_EditorClassIdentifier: 
  cellSizing: 0
  m_TransparencySortMode: 0
  m_TransparencySortAxis: {x: 0, y: 0, z: 1}
