%YAML 1.1
%TAG !u! tag:unity3d.com,2011:
--- !u!114 &11400000
MonoBehaviour:
  m_ObjectHideFlags: 0
  m_CorrespondingSourceObject: {fileID: 0}
  m_PrefabInstance: {fileID: 0}
  m_PrefabAsset: {fileID: 0}
  m_GameObject: {fileID: 0}
  m_Enabled: 1
  m_EditorHideFlags: 0
  m_Script: {fileID: 11500000, guid: d91f8de8dde2408dacbce58fc65e8826, type: 3}
  m_Name: Fly
  m_EditorClassIdentifier: 
  insectName: Fly
  animator: {fileID: 9100000, guid: 9c0323133b7497347831d27095adeb24, type: 2}
  initialSprite: {fileID: 4371034833370614553, guid: 42f3731dd56de1346bf3dbdbb1ac7d77, type: 3}
